%YAML 1.1
%TAG !u! tag:unity3d.com,2011:
--- !u!29 &1
OcclusionCullingSettings:
  m_ObjectHideFlags: 0
  serializedVersion: 2
  m_OcclusionBakeSettings:
    smallestOccluder: 5
    smallestHole: 0.25
    backfaceThreshold: 100
  m_SceneGUID: 00000000000000000000000000000000
  m_OcclusionCullingData: {fileID: 0}
--- !u!104 &2
RenderSettings:
  m_ObjectHideFlags: 0
  serializedVersion: 9
  m_Fog: 0
  m_FogColor: {r: 0.5, g: 0.5, b: 0.5, a: 1}
  m_FogMode: 3
  m_FogDensity: 0.01
  m_LinearFogStart: 0
  m_LinearFogEnd: 300
  m_AmbientSkyColor: {r: 0.212, g: 0.227, b: 0.259, a: 1}
  m_AmbientEquatorColor: {r: 0.114, g: 0.125, b: 0.133, a: 1}
  m_AmbientGroundColor: {r: 0.047, g: 0.043, b: 0.035, a: 1}
  m_AmbientIntensity: 1
  m_AmbientMode: 3
  m_SubtractiveShadowColor: {r: 0.42, g: 0.478, b: 0.627, a: 1}
  m_SkyboxMaterial: {fileID: 0}
  m_HaloStrength: 0.5
  m_FlareStrength: 1
  m_FlareFadeSpeed: 3
  m_HaloTexture: {fileID: 0}
  m_SpotCookie: {fileID: 10001, guid: 0000000000000000e000000000000000, type: 0}
  m_DefaultReflectionMode: 0
  m_DefaultReflectionResolution: 128
  m_ReflectionBounces: 1
  m_ReflectionIntensity: 1
  m_CustomReflection: {fileID: 0}
  m_Sun: {fileID: 0}
  m_IndirectSpecularColor: {r: 0, g: 0, b: 0, a: 1}
  m_UseRadianceAmbientProbe: 0
--- !u!157 &3
LightmapSettings:
  m_ObjectHideFlags: 0
  serializedVersion: 11
  m_GIWorkflowMode: 1
  m_GISettings:
    serializedVersion: 2
    m_BounceScale: 1
    m_IndirectOutputScale: 1
    m_AlbedoBoost: 1
    m_EnvironmentLightingMode: 0
    m_EnableBakedLightmaps: 0
    m_EnableRealtimeLightmaps: 0
  m_LightmapEditorSettings:
    serializedVersion: 12
    m_Resolution: 2
    m_BakeResolution: 40
    m_AtlasSize: 1024
    m_AO: 0
    m_AOMaxDistance: 1
    m_CompAOExponent: 1
    m_CompAOExponentDirect: 0
    m_ExtractAmbientOcclusion: 0
    m_Padding: 2
    m_LightmapParameters: {fileID: 0}
    m_LightmapsBakeMode: 1
    m_TextureCompression: 1
    m_FinalGather: 0
    m_FinalGatherFiltering: 1
    m_FinalGatherRayCount: 256
    m_ReflectionCompression: 2
    m_MixedBakeMode: 2
    m_BakeBackend: 0
    m_PVRSampling: 1
    m_PVRDirectSampleCount: 32
    m_PVRSampleCount: 500
    m_PVRBounces: 2
    m_PVREnvironmentSampleCount: 500
    m_PVREnvironmentReferencePointCount: 2048
    m_PVRFilteringMode: 2
    m_PVRDenoiserTypeDirect: 0
    m_PVRDenoiserTypeIndirect: 0
    m_PVRDenoiserTypeAO: 0
    m_PVRFilterTypeDirect: 0
    m_PVRFilterTypeIndirect: 0
    m_PVRFilterTypeAO: 0
    m_PVREnvironmentMIS: 0
    m_PVRCulling: 1
    m_PVRFilteringGaussRadiusDirect: 1
    m_PVRFilteringGaussRadiusIndirect: 5
    m_PVRFilteringGaussRadiusAO: 2
    m_PVRFilteringAtrousPositionSigmaDirect: 0.5
    m_PVRFilteringAtrousPositionSigmaIndirect: 2
    m_PVRFilteringAtrousPositionSigmaAO: 1
    m_ExportTrainingData: 0
    m_TrainingDataDestination: TrainingData
  m_LightingDataAsset: {fileID: 0}
  m_UseShadowmask: 1
--- !u!196 &4
NavMeshSettings:
  serializedVersion: 2
  m_ObjectHideFlags: 0
  m_BuildSettings:
    serializedVersion: 2
    agentTypeID: 0
    agentRadius: 0.5
    agentHeight: 2
    agentSlope: 45
    agentClimb: 0.4
    ledgeDropHeight: 0
    maxJumpAcrossDistance: 0
    minRegionArea: 2
    manualCellSize: 0
    cellSize: 0.16666667
    manualTileSize: 0
    tileSize: 256
    accuratePlacement: 0
    debug:
      m_Flags: 0
  m_NavMeshData: {fileID: 0}
--- !u!1 &159796382 stripped
GameObject:
<<<<<<< Updated upstream
<<<<<<< Updated upstream
  m_ObjectHideFlags: 0
  m_CorrespondingSourceObject: {fileID: 0}
  m_PrefabInstance: {fileID: 0}
  m_PrefabAsset: {fileID: 0}
  serializedVersion: 6
  m_Component:
  - component: {fileID: 159796384}
  - component: {fileID: 159796383}
  - component: {fileID: 159796386}
  - component: {fileID: 159796385}
  - component: {fileID: 159796387}
  - component: {fileID: 159796388}
  - component: {fileID: 159796389}
  m_Layer: 0
  m_Name: character
  m_TagString: Untagged
  m_Icon: {fileID: 0}
  m_NavMeshLayer: 0
  m_StaticEditorFlags: 0
  m_IsActive: 1
--- !u!212 &159796383
SpriteRenderer:
  m_ObjectHideFlags: 0
  m_CorrespondingSourceObject: {fileID: 0}
  m_PrefabInstance: {fileID: 0}
  m_PrefabAsset: {fileID: 0}
  m_GameObject: {fileID: 159796382}
  m_Enabled: 1
  m_CastShadows: 0
  m_ReceiveShadows: 0
  m_DynamicOccludee: 1
  m_MotionVectors: 1
  m_LightProbeUsage: 1
  m_ReflectionProbeUsage: 1
  m_RayTracingMode: 0
  m_RenderingLayerMask: 1
  m_RendererPriority: 0
  m_Materials:
  - {fileID: 10754, guid: 0000000000000000f000000000000000, type: 0}
  m_StaticBatchInfo:
    firstSubMesh: 0
    subMeshCount: 0
  m_StaticBatchRoot: {fileID: 0}
  m_ProbeAnchor: {fileID: 0}
  m_LightProbeVolumeOverride: {fileID: 0}
  m_ScaleInLightmap: 1
  m_ReceiveGI: 1
  m_PreserveUVs: 0
  m_IgnoreNormalsForChartDetection: 0
  m_ImportantGI: 0
  m_StitchLightmapSeams: 1
  m_SelectedEditorRenderState: 0
  m_MinimumChartSize: 4
  m_AutoUVMaxDistance: 0.5
  m_AutoUVMaxAngle: 89
  m_LightmapParameters: {fileID: 0}
  m_SortingLayerID: 0
  m_SortingLayer: 0
  m_SortingOrder: 1
  m_Sprite: {fileID: 21300000, guid: 98c76a6a3bbc70f4596837ff1afab9e8, type: 3}
  m_Color: {r: 1, g: 1, b: 1, a: 1}
  m_FlipX: 0
  m_FlipY: 0
  m_DrawMode: 0
  m_Size: {x: 4.16, y: 4.54}
  m_AdaptiveModeThreshold: 0.5
  m_SpriteTileMode: 0
  m_WasSpriteAssigned: 1
  m_MaskInteraction: 0
  m_SpriteSortPoint: 0
--- !u!4 &159796384
Transform:
  m_ObjectHideFlags: 0
  m_CorrespondingSourceObject: {fileID: 0}
  m_PrefabInstance: {fileID: 0}
  m_PrefabAsset: {fileID: 0}
  m_GameObject: {fileID: 159796382}
  m_LocalRotation: {x: 0, y: 0, z: 0, w: 1}
  m_LocalPosition: {x: -2.22, y: -1.14, z: 0}
  m_LocalScale: {x: 0.2, y: 0.2, z: 1}
  m_Children: []
  m_Father: {fileID: 0}
  m_RootOrder: 2
  m_LocalEulerAnglesHint: {x: 0, y: 0, z: 0}
--- !u!61 &159796385
BoxCollider2D:
  m_ObjectHideFlags: 0
  m_CorrespondingSourceObject: {fileID: 0}
  m_PrefabInstance: {fileID: 0}
  m_PrefabAsset: {fileID: 0}
  m_GameObject: {fileID: 159796382}
  m_Enabled: 1
  m_Density: 1
  m_Material: {fileID: 0}
  m_IsTrigger: 0
  m_UsedByEffector: 0
  m_UsedByComposite: 0
  m_Offset: {x: 0, y: 0}
  m_SpriteTilingProperty:
    border: {x: 0, y: 0, z: 0, w: 0}
    pivot: {x: 0.5, y: 0.5}
    oldSize: {x: 4.16, y: 4.54}
    newSize: {x: 4.16, y: 4.54}
    adaptiveTilingThreshold: 0.5
    drawMode: 0
    adaptiveTiling: 0
  m_AutoTiling: 0
  serializedVersion: 2
  m_Size: {x: 0.32, y: 0.32}
  m_EdgeRadius: 0
--- !u!50 &159796386
Rigidbody2D:
  serializedVersion: 4
  m_ObjectHideFlags: 0
  m_CorrespondingSourceObject: {fileID: 0}
  m_PrefabInstance: {fileID: 0}
  m_PrefabAsset: {fileID: 0}
  m_GameObject: {fileID: 159796382}
  m_BodyType: 0
  m_Simulated: 1
  m_UseFullKinematicContacts: 0
  m_UseAutoMass: 0
  m_Mass: 1
  m_LinearDrag: 0
  m_AngularDrag: 0.05
  m_GravityScale: 1
  m_Material: {fileID: 0}
  m_Interpolate: 0
  m_SleepingMode: 1
  m_CollisionDetection: 0
  m_Constraints: 4
--- !u!114 &159796387
MonoBehaviour:
  m_ObjectHideFlags: 0
  m_CorrespondingSourceObject: {fileID: 0}
  m_PrefabInstance: {fileID: 0}
  m_PrefabAsset: {fileID: 0}
  m_GameObject: {fileID: 159796382}
  m_Enabled: 1
  m_EditorHideFlags: 0
  m_Script: {fileID: 11500000, guid: 6ffa34bf222cac24f974aa9f58663ed6, type: 3}
  m_Name: 
  m_EditorClassIdentifier: 
  speed: 3
--- !u!111 &159796388
Animation:
  m_ObjectHideFlags: 0
  m_CorrespondingSourceObject: {fileID: 0}
  m_PrefabInstance: {fileID: 0}
  m_PrefabAsset: {fileID: 0}
  m_GameObject: {fileID: 159796382}
  m_Enabled: 1
  serializedVersion: 3
  m_Animation: {fileID: 7400000, guid: 9a5793a3f8eb63e408308173c7f5279d, type: 2}
  m_Animations: []
  m_WrapMode: 0
  m_PlayAutomatically: 1
  m_AnimatePhysics: 0
  m_CullingType: 0
--- !u!95 &159796389
Animator:
  serializedVersion: 3
  m_ObjectHideFlags: 0
  m_CorrespondingSourceObject: {fileID: 0}
  m_PrefabInstance: {fileID: 0}
  m_PrefabAsset: {fileID: 0}
  m_GameObject: {fileID: 159796382}
  m_Enabled: 1
  m_Avatar: {fileID: 0}
  m_Controller: {fileID: 9100000, guid: f43d8cba924d90941bda4f93cd7dda10, type: 2}
  m_CullingMode: 0
  m_UpdateMode: 0
  m_ApplyRootMotion: 0
  m_LinearVelocityBlending: 0
  m_WarningMessage: 
  m_HasTransformHierarchy: 1
  m_AllowConstantClipSamplingOptimization: 1
  m_KeepAnimatorControllerStateOnDisable: 0
--- !u!1 &519420028
GameObject:
  m_ObjectHideFlags: 0
  m_CorrespondingSourceObject: {fileID: 0}
  m_PrefabInstance: {fileID: 0}
  m_PrefabAsset: {fileID: 0}
  serializedVersion: 6
  m_Component:
  - component: {fileID: 519420032}
  - component: {fileID: 519420031}
  - component: {fileID: 519420029}
  - component: {fileID: 519420030}
  m_Layer: 0
  m_Name: Main Camera
  m_TagString: MainCamera
  m_Icon: {fileID: 0}
  m_NavMeshLayer: 0
  m_StaticEditorFlags: 0
  m_IsActive: 1
--- !u!81 &519420029
AudioListener:
  m_ObjectHideFlags: 0
  m_CorrespondingSourceObject: {fileID: 0}
  m_PrefabInstance: {fileID: 0}
  m_PrefabAsset: {fileID: 0}
  m_GameObject: {fileID: 519420028}
  m_Enabled: 1
--- !u!114 &519420030
MonoBehaviour:
  m_ObjectHideFlags: 0
  m_CorrespondingSourceObject: {fileID: 0}
  m_PrefabInstance: {fileID: 0}
  m_PrefabAsset: {fileID: 0}
  m_GameObject: {fileID: 519420028}
  m_Enabled: 1
  m_EditorHideFlags: 0
  m_Script: {fileID: 11500000, guid: 62aa3615aefab4344bc26351bcf09236, type: 3}
  m_Name: 
  m_EditorClassIdentifier: 
  player: {fileID: 159796382}
--- !u!20 &519420031
Camera:
  m_ObjectHideFlags: 0
  m_CorrespondingSourceObject: {fileID: 0}
  m_PrefabInstance: {fileID: 0}
  m_PrefabAsset: {fileID: 0}
  m_GameObject: {fileID: 519420028}
  m_Enabled: 1
  serializedVersion: 2
  m_ClearFlags: 2
  m_BackGroundColor: {r: 0.19215687, g: 0.3019608, b: 0.4745098, a: 0}
  m_projectionMatrixMode: 1
  m_GateFitMode: 2
  m_FOVAxisMode: 0
  m_SensorSize: {x: 36, y: 24}
  m_LensShift: {x: 0, y: 0}
  m_FocalLength: 50
  m_NormalizedViewPortRect:
    serializedVersion: 2
    x: 0
    y: 0
    width: 1
    height: 1
  near clip plane: 0.3
  far clip plane: 1000
  field of view: 60
  orthographic: 1
  orthographic size: 2.4406831
  m_Depth: -1
  m_CullingMask:
    serializedVersion: 2
    m_Bits: 4294967295
  m_RenderingPath: -1
  m_TargetTexture: {fileID: 0}
  m_TargetDisplay: 0
  m_TargetEye: 0
  m_HDR: 1
  m_AllowMSAA: 0
  m_AllowDynamicResolution: 0
  m_ForceIntoRT: 0
  m_OcclusionCulling: 0
  m_StereoConvergence: 10
  m_StereoSeparation: 0.022
--- !u!4 &519420032
Transform:
  m_ObjectHideFlags: 0
  m_CorrespondingSourceObject: {fileID: 0}
  m_PrefabInstance: {fileID: 0}
  m_PrefabAsset: {fileID: 0}
  m_GameObject: {fileID: 519420028}
  m_LocalRotation: {x: 0, y: 0, z: 0, w: 1}
  m_LocalPosition: {x: -1.25, y: 0, z: -10}
  m_LocalScale: {x: 1, y: 1, z: 1}
  m_Children: []
  m_Father: {fileID: 0}
  m_RootOrder: 0
  m_LocalEulerAnglesHint: {x: 0, y: 0, z: 0}
--- !u!1 &1001526674
GameObject:
  m_ObjectHideFlags: 0
  m_CorrespondingSourceObject: {fileID: 0}
  m_PrefabInstance: {fileID: 0}
  m_PrefabAsset: {fileID: 0}
  serializedVersion: 6
  m_Component:
  - component: {fileID: 1001526676}
  - component: {fileID: 1001526675}
  - component: {fileID: 1001526677}
  m_Layer: 0
  m_Name: background
  m_TagString: Untagged
  m_Icon: {fileID: 0}
  m_NavMeshLayer: 0
  m_StaticEditorFlags: 0
  m_IsActive: 1
--- !u!212 &1001526675
SpriteRenderer:
  m_ObjectHideFlags: 0
  m_CorrespondingSourceObject: {fileID: 0}
  m_PrefabInstance: {fileID: 0}
  m_PrefabAsset: {fileID: 0}
  m_GameObject: {fileID: 1001526674}
  m_Enabled: 1
  m_CastShadows: 0
  m_ReceiveShadows: 0
  m_DynamicOccludee: 1
  m_MotionVectors: 1
  m_LightProbeUsage: 1
  m_ReflectionProbeUsage: 1
  m_RayTracingMode: 0
  m_RenderingLayerMask: 1
  m_RendererPriority: 0
  m_Materials:
  - {fileID: 10754, guid: 0000000000000000f000000000000000, type: 0}
  m_StaticBatchInfo:
    firstSubMesh: 0
    subMeshCount: 0
  m_StaticBatchRoot: {fileID: 0}
  m_ProbeAnchor: {fileID: 0}
  m_LightProbeVolumeOverride: {fileID: 0}
  m_ScaleInLightmap: 1
  m_ReceiveGI: 1
  m_PreserveUVs: 0
  m_IgnoreNormalsForChartDetection: 0
  m_ImportantGI: 0
  m_StitchLightmapSeams: 1
  m_SelectedEditorRenderState: 0
  m_MinimumChartSize: 4
  m_AutoUVMaxDistance: 0.5
  m_AutoUVMaxAngle: 89
  m_LightmapParameters: {fileID: 0}
  m_SortingLayerID: 0
  m_SortingLayer: 0
  m_SortingOrder: 0
  m_Sprite: {fileID: 21300000, guid: 67fe3b78dc09e444a8ad5d9849e77284, type: 3}
  m_Color: {r: 1, g: 1, b: 1, a: 1}
  m_FlipX: 0
  m_FlipY: 0
  m_DrawMode: 0
  m_Size: {x: 17.92, y: 5.76}
  m_AdaptiveModeThreshold: 0.5
  m_SpriteTileMode: 0
  m_WasSpriteAssigned: 1
  m_MaskInteraction: 0
  m_SpriteSortPoint: 0
--- !u!4 &1001526676
Transform:
  m_ObjectHideFlags: 0
  m_CorrespondingSourceObject: {fileID: 0}
  m_PrefabInstance: {fileID: 0}
  m_PrefabAsset: {fileID: 0}
  m_GameObject: {fileID: 1001526674}
  m_LocalRotation: {x: 0, y: 0, z: 0, w: 1}
  m_LocalPosition: {x: 4.748, y: 0.054, z: 0}
  m_LocalScale: {x: 1.6421599, y: 1.7674966, z: 1}
  m_Children: []
  m_Father: {fileID: 0}
  m_RootOrder: 1
  m_LocalEulerAnglesHint: {x: 0, y: 0, z: 0}
--- !u!61 &1001526677
BoxCollider2D:
  m_ObjectHideFlags: 0
  m_CorrespondingSourceObject: {fileID: 0}
  m_PrefabInstance: {fileID: 0}
  m_PrefabAsset: {fileID: 0}
  m_GameObject: {fileID: 1001526674}
  m_Enabled: 1
  m_Density: 1
  m_Material: {fileID: 0}
  m_IsTrigger: 0
  m_UsedByEffector: 0
  m_UsedByComposite: 0
  m_Offset: {x: -4, y: -2.5}
  m_SpriteTilingProperty:
    border: {x: 0, y: 0, z: 0, w: 0}
    pivot: {x: 0.5, y: 0.5}
    oldSize: {x: 17.92, y: 5.76}
    newSize: {x: 17.92, y: 5.76}
    adaptiveTilingThreshold: 0.5
    drawMode: 0
    adaptiveTiling: 0
  m_AutoTiling: 0
  serializedVersion: 2
  m_Size: {x: 10, y: 0.7}
  m_EdgeRadius: 0
--- !u!1 &1809574812
=======
  m_CorrespondingSourceObject: {fileID: 2941576051512644696, guid: a5c939ca191eed144ac939a29685b6d3,
    type: 3}
  m_PrefabInstance: {fileID: 2941576051403479238}
  m_PrefabAsset: {fileID: 0}
--- !u!1 &299483360 stripped
GameObject:
  m_CorrespondingSourceObject: {fileID: 2798435660856445020, guid: 80c6364f52ddb454f9e065ed2c5041a8,
    type: 3}
  m_PrefabInstance: {fileID: 2798435661155895484}
  m_PrefabAsset: {fileID: 0}
--- !u!1 &1051426524 stripped
GameObject:
=======
  m_CorrespondingSourceObject: {fileID: 2941576051512644696, guid: a5c939ca191eed144ac939a29685b6d3,
    type: 3}
  m_PrefabInstance: {fileID: 2941576051403479238}
  m_PrefabAsset: {fileID: 0}
--- !u!1 &299483360 stripped
GameObject:
  m_CorrespondingSourceObject: {fileID: 2798435660856445020, guid: 80c6364f52ddb454f9e065ed2c5041a8,
    type: 3}
  m_PrefabInstance: {fileID: 2798435661155895484}
  m_PrefabAsset: {fileID: 0}
--- !u!1 &1051426524 stripped
GameObject:
>>>>>>> Stashed changes
  m_CorrespondingSourceObject: {fileID: 8158552555117441022, guid: bda6990285c80f94aa2f5f0355c7ee0e,
    type: 3}
  m_PrefabInstance: {fileID: 8158552554553872674}
  m_PrefabAsset: {fileID: 0}
--- !u!1 &1299208484 stripped
<<<<<<< Updated upstream
>>>>>>> Stashed changes
=======
>>>>>>> Stashed changes
GameObject:
  m_CorrespondingSourceObject: {fileID: 8158552555416864774, guid: bda6990285c80f94aa2f5f0355c7ee0e,
    type: 3}
  m_PrefabInstance: {fileID: 8158552554553872674}
  m_PrefabAsset: {fileID: 0}
--- !u!1001 &1334992683
PrefabInstance:
  m_ObjectHideFlags: 0
  serializedVersion: 2
<<<<<<< Updated upstream
<<<<<<< Updated upstream
  m_Size: {x: 1, y: 1}
  m_EdgeRadius: 0
--- !u!4 &1809574814
Transform:
  m_ObjectHideFlags: 0
  m_CorrespondingSourceObject: {fileID: 0}
  m_PrefabInstance: {fileID: 0}
  m_PrefabAsset: {fileID: 0}
  m_GameObject: {fileID: 1809574812}
  m_LocalRotation: {x: 0, y: 0, z: 0, w: 1}
  m_LocalPosition: {x: -8, y: -3, z: -1.0567881}
  m_LocalScale: {x: 1, y: 34, z: 1}
  m_Children: []
  m_Father: {fileID: 0}
  m_RootOrder: 3
  m_LocalEulerAnglesHint: {x: 0, y: 0, z: 0}
=======
=======
>>>>>>> Stashed changes
  m_Modification:
    m_TransformParent: {fileID: 0}
    m_Modifications:
    - target: {fileID: 2688937657518420643, guid: ba20b34b61700734681f217ca9cd5336,
        type: 3}
      propertyPath: m_Name
      value: complete_background
      objectReference: {fileID: 0}
    - target: {fileID: 2688937657518420645, guid: ba20b34b61700734681f217ca9cd5336,
        type: 3}
      propertyPath: m_LocalPosition.x
      value: 4.748
      objectReference: {fileID: 0}
    - target: {fileID: 2688937657518420645, guid: ba20b34b61700734681f217ca9cd5336,
        type: 3}
      propertyPath: m_LocalPosition.y
      value: 0.054
      objectReference: {fileID: 0}
    - target: {fileID: 2688937657518420645, guid: ba20b34b61700734681f217ca9cd5336,
        type: 3}
      propertyPath: m_LocalPosition.z
      value: 0
      objectReference: {fileID: 0}
    - target: {fileID: 2688937657518420645, guid: ba20b34b61700734681f217ca9cd5336,
        type: 3}
      propertyPath: m_LocalRotation.x
      value: 0
      objectReference: {fileID: 0}
    - target: {fileID: 2688937657518420645, guid: ba20b34b61700734681f217ca9cd5336,
        type: 3}
      propertyPath: m_LocalRotation.y
      value: 0
      objectReference: {fileID: 0}
    - target: {fileID: 2688937657518420645, guid: ba20b34b61700734681f217ca9cd5336,
        type: 3}
      propertyPath: m_LocalRotation.z
      value: 0
      objectReference: {fileID: 0}
    - target: {fileID: 2688937657518420645, guid: ba20b34b61700734681f217ca9cd5336,
        type: 3}
      propertyPath: m_LocalRotation.w
      value: 1
      objectReference: {fileID: 0}
    - target: {fileID: 2688937657518420645, guid: ba20b34b61700734681f217ca9cd5336,
        type: 3}
      propertyPath: m_RootOrder
      value: 1
      objectReference: {fileID: 0}
    - target: {fileID: 2688937657518420645, guid: ba20b34b61700734681f217ca9cd5336,
        type: 3}
      propertyPath: m_LocalEulerAnglesHint.x
      value: 0
      objectReference: {fileID: 0}
    - target: {fileID: 2688937657518420645, guid: ba20b34b61700734681f217ca9cd5336,
        type: 3}
      propertyPath: m_LocalEulerAnglesHint.y
      value: 0
      objectReference: {fileID: 0}
    - target: {fileID: 2688937657518420645, guid: ba20b34b61700734681f217ca9cd5336,
        type: 3}
      propertyPath: m_LocalEulerAnglesHint.z
      value: 0
      objectReference: {fileID: 0}
    - target: {fileID: 2688937657518420642, guid: ba20b34b61700734681f217ca9cd5336,
        type: 3}
      propertyPath: m_SortingOrder
      value: -1
      objectReference: {fileID: 0}
    m_RemovedComponents: []
  m_SourcePrefab: {fileID: 100100000, guid: ba20b34b61700734681f217ca9cd5336, type: 3}
--- !u!1 &1608230441 stripped
GameObject:
  m_CorrespondingSourceObject: {fileID: 8158552555640698635, guid: bda6990285c80f94aa2f5f0355c7ee0e,
    type: 3}
  m_PrefabInstance: {fileID: 8158552554553872674}
  m_PrefabAsset: {fileID: 0}
--- !u!1001 &772128825051421529
PrefabInstance:
  m_ObjectHideFlags: 0
  serializedVersion: 2
  m_Modification:
    m_TransformParent: {fileID: 0}
    m_Modifications:
    - target: {fileID: 772128824347276057, guid: 993262281b2bf724eb5f3f8af89fe2ff,
        type: 3}
      propertyPath: m_Name
      value: fuel
      objectReference: {fileID: 0}
    - target: {fileID: 772128824347276059, guid: 993262281b2bf724eb5f3f8af89fe2ff,
        type: 3}
      propertyPath: m_LocalPosition.x
      value: -5.8016434
      objectReference: {fileID: 0}
    - target: {fileID: 772128824347276059, guid: 993262281b2bf724eb5f3f8af89fe2ff,
        type: 3}
      propertyPath: m_LocalPosition.y
      value: 4.136917
      objectReference: {fileID: 0}
    - target: {fileID: 772128824347276059, guid: 993262281b2bf724eb5f3f8af89fe2ff,
        type: 3}
      propertyPath: m_LocalPosition.z
      value: 0
      objectReference: {fileID: 0}
    - target: {fileID: 772128824347276059, guid: 993262281b2bf724eb5f3f8af89fe2ff,
        type: 3}
      propertyPath: m_LocalRotation.x
      value: -0
      objectReference: {fileID: 0}
    - target: {fileID: 772128824347276059, guid: 993262281b2bf724eb5f3f8af89fe2ff,
        type: 3}
      propertyPath: m_LocalRotation.y
      value: -0
      objectReference: {fileID: 0}
    - target: {fileID: 772128824347276059, guid: 993262281b2bf724eb5f3f8af89fe2ff,
        type: 3}
      propertyPath: m_LocalRotation.z
      value: -0
      objectReference: {fileID: 0}
    - target: {fileID: 772128824347276059, guid: 993262281b2bf724eb5f3f8af89fe2ff,
        type: 3}
      propertyPath: m_LocalRotation.w
      value: 1
      objectReference: {fileID: 0}
    - target: {fileID: 772128824347276059, guid: 993262281b2bf724eb5f3f8af89fe2ff,
        type: 3}
      propertyPath: m_RootOrder
      value: 4
      objectReference: {fileID: 0}
    - target: {fileID: 772128824347276059, guid: 993262281b2bf724eb5f3f8af89fe2ff,
        type: 3}
      propertyPath: m_LocalEulerAnglesHint.x
      value: 0
      objectReference: {fileID: 0}
    - target: {fileID: 772128824347276059, guid: 993262281b2bf724eb5f3f8af89fe2ff,
        type: 3}
      propertyPath: m_LocalEulerAnglesHint.y
      value: 0
      objectReference: {fileID: 0}
    - target: {fileID: 772128824347276059, guid: 993262281b2bf724eb5f3f8af89fe2ff,
        type: 3}
      propertyPath: m_LocalEulerAnglesHint.z
      value: 0
      objectReference: {fileID: 0}
    - target: {fileID: 772128824347276061, guid: 993262281b2bf724eb5f3f8af89fe2ff,
        type: 3}
      propertyPath: nau
      value: 
      objectReference: {fileID: 299483360}
    m_RemovedComponents: []
  m_SourcePrefab: {fileID: 100100000, guid: 993262281b2bf724eb5f3f8af89fe2ff, type: 3}
--- !u!1001 &2798435661155895484
PrefabInstance:
  m_ObjectHideFlags: 0
  serializedVersion: 2
  m_Modification:
    m_TransformParent: {fileID: 0}
    m_Modifications:
    - target: {fileID: 2798435660856445020, guid: 80c6364f52ddb454f9e065ed2c5041a8,
        type: 3}
      propertyPath: m_Name
      value: spaceship_back
      objectReference: {fileID: 0}
    - target: {fileID: 2798435660856445017, guid: 80c6364f52ddb454f9e065ed2c5041a8,
        type: 3}
      propertyPath: m_LocalPosition.x
      value: 14.15
      objectReference: {fileID: 0}
    - target: {fileID: 2798435660856445017, guid: 80c6364f52ddb454f9e065ed2c5041a8,
        type: 3}
      propertyPath: m_LocalPosition.y
      value: 2.34
      objectReference: {fileID: 0}
    - target: {fileID: 2798435660856445017, guid: 80c6364f52ddb454f9e065ed2c5041a8,
        type: 3}
      propertyPath: m_LocalPosition.z
      value: 0
      objectReference: {fileID: 0}
    - target: {fileID: 2798435660856445017, guid: 80c6364f52ddb454f9e065ed2c5041a8,
        type: 3}
      propertyPath: m_LocalRotation.x
      value: 0
      objectReference: {fileID: 0}
    - target: {fileID: 2798435660856445017, guid: 80c6364f52ddb454f9e065ed2c5041a8,
        type: 3}
      propertyPath: m_LocalRotation.y
      value: 0
      objectReference: {fileID: 0}
    - target: {fileID: 2798435660856445017, guid: 80c6364f52ddb454f9e065ed2c5041a8,
        type: 3}
      propertyPath: m_LocalRotation.z
      value: 0
      objectReference: {fileID: 0}
    - target: {fileID: 2798435660856445017, guid: 80c6364f52ddb454f9e065ed2c5041a8,
        type: 3}
      propertyPath: m_LocalRotation.w
      value: 1
      objectReference: {fileID: 0}
    - target: {fileID: 2798435660856445017, guid: 80c6364f52ddb454f9e065ed2c5041a8,
        type: 3}
      propertyPath: m_RootOrder
      value: 5
      objectReference: {fileID: 0}
    - target: {fileID: 2798435660856445017, guid: 80c6364f52ddb454f9e065ed2c5041a8,
        type: 3}
      propertyPath: m_LocalEulerAnglesHint.x
      value: 0
      objectReference: {fileID: 0}
    - target: {fileID: 2798435660856445017, guid: 80c6364f52ddb454f9e065ed2c5041a8,
        type: 3}
      propertyPath: m_LocalEulerAnglesHint.y
      value: 0
      objectReference: {fileID: 0}
    - target: {fileID: 2798435660856445017, guid: 80c6364f52ddb454f9e065ed2c5041a8,
        type: 3}
      propertyPath: m_LocalEulerAnglesHint.z
      value: 0
      objectReference: {fileID: 0}
    m_RemovedComponents: []
  m_SourcePrefab: {fileID: 100100000, guid: 80c6364f52ddb454f9e065ed2c5041a8, type: 3}
--- !u!1001 &2941576051403479238
PrefabInstance:
  m_ObjectHideFlags: 0
  serializedVersion: 2
  m_Modification:
    m_TransformParent: {fileID: 0}
    m_Modifications:
    - target: {fileID: 2941576051512644696, guid: a5c939ca191eed144ac939a29685b6d3,
        type: 3}
      propertyPath: m_Name
      value: character
      objectReference: {fileID: 0}
    - target: {fileID: 4998569848816867277, guid: a5c939ca191eed144ac939a29685b6d3,
        type: 3}
      propertyPath: m_LocalPosition.x
      value: -5.22
      objectReference: {fileID: 0}
    - target: {fileID: 4998569848816867277, guid: a5c939ca191eed144ac939a29685b6d3,
        type: 3}
      propertyPath: m_LocalPosition.y
      value: -3.334
      objectReference: {fileID: 0}
    - target: {fileID: 4998569848816867277, guid: a5c939ca191eed144ac939a29685b6d3,
        type: 3}
      propertyPath: m_LocalPosition.z
      value: 0
      objectReference: {fileID: 0}
    - target: {fileID: 4998569848816867277, guid: a5c939ca191eed144ac939a29685b6d3,
        type: 3}
      propertyPath: m_LocalRotation.x
      value: 0
      objectReference: {fileID: 0}
    - target: {fileID: 4998569848816867277, guid: a5c939ca191eed144ac939a29685b6d3,
        type: 3}
      propertyPath: m_LocalRotation.y
      value: 0
      objectReference: {fileID: 0}
    - target: {fileID: 4998569848816867277, guid: a5c939ca191eed144ac939a29685b6d3,
        type: 3}
      propertyPath: m_LocalRotation.z
      value: 0
      objectReference: {fileID: 0}
    - target: {fileID: 4998569848816867277, guid: a5c939ca191eed144ac939a29685b6d3,
        type: 3}
      propertyPath: m_LocalRotation.w
      value: 1
      objectReference: {fileID: 0}
    - target: {fileID: 4998569848816867277, guid: a5c939ca191eed144ac939a29685b6d3,
        type: 3}
      propertyPath: m_RootOrder
      value: 2
      objectReference: {fileID: 0}
    - target: {fileID: 4998569848816867277, guid: a5c939ca191eed144ac939a29685b6d3,
        type: 3}
      propertyPath: m_LocalEulerAnglesHint.x
      value: 0
      objectReference: {fileID: 0}
    - target: {fileID: 4998569848816867277, guid: a5c939ca191eed144ac939a29685b6d3,
        type: 3}
      propertyPath: m_LocalEulerAnglesHint.y
      value: 0
      objectReference: {fileID: 0}
    - target: {fileID: 4998569848816867277, guid: a5c939ca191eed144ac939a29685b6d3,
        type: 3}
      propertyPath: m_LocalEulerAnglesHint.z
      value: 0
      objectReference: {fileID: 0}
    - target: {fileID: 2941576051512644697, guid: a5c939ca191eed144ac939a29685b6d3,
        type: 3}
      propertyPath: vida
      value: 
      objectReference: {fileID: 1608230441}
    - target: {fileID: 2941576051512644697, guid: a5c939ca191eed144ac939a29685b6d3,
        type: 3}
      propertyPath: vida1
      value: 
      objectReference: {fileID: 1051426524}
    - target: {fileID: 2941576051512644697, guid: a5c939ca191eed144ac939a29685b6d3,
        type: 3}
      propertyPath: vida2
      value: 
      objectReference: {fileID: 1299208484}
    m_RemovedComponents: []
  m_SourcePrefab: {fileID: 100100000, guid: a5c939ca191eed144ac939a29685b6d3, type: 3}
--- !u!1001 &3786426539406166227
PrefabInstance:
  m_ObjectHideFlags: 0
  serializedVersion: 2
  m_Modification:
    m_TransformParent: {fileID: 0}
    m_Modifications:
    - target: {fileID: 3786426539851549485, guid: c37c8437c38ef0349995abfd4410acbf,
        type: 3}
      propertyPath: m_Name
      value: enemy
      objectReference: {fileID: 0}
    - target: {fileID: 3786426539851549907, guid: c37c8437c38ef0349995abfd4410acbf,
        type: 3}
      propertyPath: m_LocalPosition.x
      value: 9.34
      objectReference: {fileID: 0}
    - target: {fileID: 3786426539851549907, guid: c37c8437c38ef0349995abfd4410acbf,
        type: 3}
      propertyPath: m_LocalPosition.y
      value: 1.81
      objectReference: {fileID: 0}
    - target: {fileID: 3786426539851549907, guid: c37c8437c38ef0349995abfd4410acbf,
        type: 3}
      propertyPath: m_LocalPosition.z
      value: 0
      objectReference: {fileID: 0}
    - target: {fileID: 3786426539851549907, guid: c37c8437c38ef0349995abfd4410acbf,
        type: 3}
      propertyPath: m_LocalRotation.x
      value: 0
      objectReference: {fileID: 0}
    - target: {fileID: 3786426539851549907, guid: c37c8437c38ef0349995abfd4410acbf,
        type: 3}
      propertyPath: m_LocalRotation.y
      value: 0
      objectReference: {fileID: 0}
    - target: {fileID: 3786426539851549907, guid: c37c8437c38ef0349995abfd4410acbf,
        type: 3}
      propertyPath: m_LocalRotation.z
      value: 0
      objectReference: {fileID: 0}
    - target: {fileID: 3786426539851549907, guid: c37c8437c38ef0349995abfd4410acbf,
        type: 3}
      propertyPath: m_LocalRotation.w
      value: 1
      objectReference: {fileID: 0}
    - target: {fileID: 3786426539851549907, guid: c37c8437c38ef0349995abfd4410acbf,
        type: 3}
      propertyPath: m_RootOrder
      value: 6
      objectReference: {fileID: 0}
    - target: {fileID: 3786426539851549907, guid: c37c8437c38ef0349995abfd4410acbf,
        type: 3}
      propertyPath: m_LocalEulerAnglesHint.x
      value: 0
      objectReference: {fileID: 0}
    - target: {fileID: 3786426539851549907, guid: c37c8437c38ef0349995abfd4410acbf,
        type: 3}
      propertyPath: m_LocalEulerAnglesHint.y
      value: 0
      objectReference: {fileID: 0}
    - target: {fileID: 3786426539851549907, guid: c37c8437c38ef0349995abfd4410acbf,
        type: 3}
      propertyPath: m_LocalEulerAnglesHint.z
      value: 0
      objectReference: {fileID: 0}
    - target: {fileID: 3786426539851549904, guid: c37c8437c38ef0349995abfd4410acbf,
        type: 3}
      propertyPath: vida
      value: 
      objectReference: {fileID: 1608230441}
    - target: {fileID: 3786426539851549904, guid: c37c8437c38ef0349995abfd4410acbf,
        type: 3}
      propertyPath: vida1
      value: 
      objectReference: {fileID: 1051426524}
    - target: {fileID: 3786426539851549904, guid: c37c8437c38ef0349995abfd4410acbf,
        type: 3}
      propertyPath: vida2
      value: 
      objectReference: {fileID: 1299208484}
    - target: {fileID: 3786426539851549904, guid: c37c8437c38ef0349995abfd4410acbf,
        type: 3}
      propertyPath: x_main
      value: -5.22
      objectReference: {fileID: 0}
    - target: {fileID: 3786426539851549904, guid: c37c8437c38ef0349995abfd4410acbf,
        type: 3}
      propertyPath: y_main
      value: -3.334
      objectReference: {fileID: 0}
    m_RemovedComponents: []
  m_SourcePrefab: {fileID: 100100000, guid: c37c8437c38ef0349995abfd4410acbf, type: 3}
--- !u!1001 &4401873322466565097
PrefabInstance:
  m_ObjectHideFlags: 0
  serializedVersion: 2
  m_Modification:
    m_TransformParent: {fileID: 0}
    m_Modifications:
    - target: {fileID: 4401873321051271912, guid: 3cf447f4e3a08fe4ba2d2d7c0db1c736,
        type: 3}
      propertyPath: m_Name
      value: spaceship
      objectReference: {fileID: 0}
    - target: {fileID: 4401873321051271916, guid: 3cf447f4e3a08fe4ba2d2d7c0db1c736,
        type: 3}
      propertyPath: m_LocalPosition.x
      value: -6.15
      objectReference: {fileID: 0}
    - target: {fileID: 4401873321051271916, guid: 3cf447f4e3a08fe4ba2d2d7c0db1c736,
        type: 3}
      propertyPath: m_LocalPosition.y
      value: 7.34
      objectReference: {fileID: 0}
    - target: {fileID: 4401873321051271916, guid: 3cf447f4e3a08fe4ba2d2d7c0db1c736,
        type: 3}
      propertyPath: m_LocalPosition.z
      value: 0
      objectReference: {fileID: 0}
    - target: {fileID: 4401873321051271916, guid: 3cf447f4e3a08fe4ba2d2d7c0db1c736,
        type: 3}
      propertyPath: m_LocalRotation.x
      value: 0
      objectReference: {fileID: 0}
    - target: {fileID: 4401873321051271916, guid: 3cf447f4e3a08fe4ba2d2d7c0db1c736,
        type: 3}
      propertyPath: m_LocalRotation.y
      value: 0
      objectReference: {fileID: 0}
    - target: {fileID: 4401873321051271916, guid: 3cf447f4e3a08fe4ba2d2d7c0db1c736,
        type: 3}
      propertyPath: m_LocalRotation.z
      value: 0
      objectReference: {fileID: 0}
    - target: {fileID: 4401873321051271916, guid: 3cf447f4e3a08fe4ba2d2d7c0db1c736,
        type: 3}
      propertyPath: m_LocalRotation.w
      value: 1
      objectReference: {fileID: 0}
    - target: {fileID: 4401873321051271916, guid: 3cf447f4e3a08fe4ba2d2d7c0db1c736,
        type: 3}
      propertyPath: m_RootOrder
      value: 3
      objectReference: {fileID: 0}
    - target: {fileID: 4401873321051271916, guid: 3cf447f4e3a08fe4ba2d2d7c0db1c736,
        type: 3}
      propertyPath: m_LocalEulerAnglesHint.x
      value: 0
      objectReference: {fileID: 0}
    - target: {fileID: 4401873321051271916, guid: 3cf447f4e3a08fe4ba2d2d7c0db1c736,
        type: 3}
      propertyPath: m_LocalEulerAnglesHint.y
      value: 0
      objectReference: {fileID: 0}
    - target: {fileID: 4401873321051271916, guid: 3cf447f4e3a08fe4ba2d2d7c0db1c736,
        type: 3}
      propertyPath: m_LocalEulerAnglesHint.z
      value: 0
      objectReference: {fileID: 0}
    - target: {fileID: 4401873321051271919, guid: 3cf447f4e3a08fe4ba2d2d7c0db1c736,
        type: 3}
      propertyPath: character
      value: 
      objectReference: {fileID: 159796382}
    m_RemovedComponents: []
  m_SourcePrefab: {fileID: 100100000, guid: 3cf447f4e3a08fe4ba2d2d7c0db1c736, type: 3}
--- !u!1001 &8158552554553872674
PrefabInstance:
  m_ObjectHideFlags: 0
  serializedVersion: 2
  m_Modification:
    m_TransformParent: {fileID: 0}
    m_Modifications:
    - target: {fileID: 8158552554586745182, guid: bda6990285c80f94aa2f5f0355c7ee0e,
        type: 3}
      propertyPath: m_Name
      value: Main Camera
      objectReference: {fileID: 0}
    - target: {fileID: 8158552554586745250, guid: bda6990285c80f94aa2f5f0355c7ee0e,
        type: 3}
      propertyPath: m_LocalPosition.x
      value: -5.038769
      objectReference: {fileID: 0}
    - target: {fileID: 8158552554586745250, guid: bda6990285c80f94aa2f5f0355c7ee0e,
        type: 3}
      propertyPath: m_LocalPosition.y
      value: -2.009118
      objectReference: {fileID: 0}
    - target: {fileID: 8158552554586745250, guid: bda6990285c80f94aa2f5f0355c7ee0e,
        type: 3}
      propertyPath: m_LocalPosition.z
      value: -10
      objectReference: {fileID: 0}
    - target: {fileID: 8158552554586745250, guid: bda6990285c80f94aa2f5f0355c7ee0e,
        type: 3}
      propertyPath: m_LocalRotation.x
      value: 0
      objectReference: {fileID: 0}
    - target: {fileID: 8158552554586745250, guid: bda6990285c80f94aa2f5f0355c7ee0e,
        type: 3}
      propertyPath: m_LocalRotation.y
      value: 0
      objectReference: {fileID: 0}
    - target: {fileID: 8158552554586745250, guid: bda6990285c80f94aa2f5f0355c7ee0e,
        type: 3}
      propertyPath: m_LocalRotation.z
      value: 0
      objectReference: {fileID: 0}
    - target: {fileID: 8158552554586745250, guid: bda6990285c80f94aa2f5f0355c7ee0e,
        type: 3}
      propertyPath: m_LocalRotation.w
      value: 1
      objectReference: {fileID: 0}
    - target: {fileID: 8158552554586745250, guid: bda6990285c80f94aa2f5f0355c7ee0e,
        type: 3}
      propertyPath: m_RootOrder
      value: 0
      objectReference: {fileID: 0}
    - target: {fileID: 8158552554586745250, guid: bda6990285c80f94aa2f5f0355c7ee0e,
        type: 3}
      propertyPath: m_LocalEulerAnglesHint.x
      value: 0
      objectReference: {fileID: 0}
    - target: {fileID: 8158552554586745250, guid: bda6990285c80f94aa2f5f0355c7ee0e,
        type: 3}
      propertyPath: m_LocalEulerAnglesHint.y
      value: 0
      objectReference: {fileID: 0}
    - target: {fileID: 8158552554586745250, guid: bda6990285c80f94aa2f5f0355c7ee0e,
        type: 3}
      propertyPath: m_LocalEulerAnglesHint.z
      value: 0
      objectReference: {fileID: 0}
    - target: {fileID: 8158552554586745180, guid: bda6990285c80f94aa2f5f0355c7ee0e,
        type: 3}
      propertyPath: player
      value: 
      objectReference: {fileID: 159796382}
    m_RemovedComponents: []
  m_SourcePrefab: {fileID: 100100000, guid: bda6990285c80f94aa2f5f0355c7ee0e, type: 3}
<<<<<<< Updated upstream
>>>>>>> Stashed changes
=======
>>>>>>> Stashed changes
