%YAML 1.1
%TAG !u! tag:unity3d.com,2011:
--- !u!74 &7400000
AnimationClip:
  m_ObjectHideFlags: 0
  m_CorrespondingSourceObject: {fileID: 0}
  m_PrefabInstance: {fileID: 0}
  m_PrefabAsset: {fileID: 0}
  m_Name: santa_anim
  serializedVersion: 6
  m_Legacy: 0
  m_Compressed: 0
  m_UseHighQualityCurve: 1
  m_RotationCurves: []
  m_CompressedRotationCurves: []
  m_EulerCurves: []
  m_PositionCurves: []
  m_ScaleCurves: []
  m_FloatCurves: []
  m_PPtrCurves:
  - curve:
    - time: 0
      value: {fileID: 21300000, guid: 48043ebb761d9484bbc1f73ff09467ae, type: 3}
    - time: 0.083333336
      value: {fileID: 21300000, guid: 3d63fbcccecc05a4eb2f3d634bf69f86, type: 3}
    - time: 0.16666667
      value: {fileID: 21300000, guid: b991faa656a320941beef8196140d52a, type: 3}
    - time: 0.25
      value: {fileID: 21300000, guid: 7a78d018506e8d8498089da87996bfd2, type: 3}
    - time: 0.33333334
      value: {fileID: 21300000, guid: d3e3de087170ab44bb6f9d6794d49370, type: 3}
    - time: 0.41666666
      value: {fileID: 21300000, guid: 6c214685315ee8c4abf5e77dc7d36a2f, type: 3}
    - time: 0.5
      value: {fileID: 21300000, guid: c688ed9f654e3ea4dbf42d6c11c84596, type: 3}
    - time: 0.5833333
      value: {fileID: 21300000, guid: 6ef548112dd08d64f8ea3a63ae598365, type: 3}
    - time: 0.6666667
      value: {fileID: 21300000, guid: c9277f352a5e48e4abbcf6cd1b830df1, type: 3}
    - time: 0.75
      value: {fileID: 21300000, guid: 5d6524166cb1cae409d6df89c13327bb, type: 3}
    - time: 0.8333333
      value: {fileID: 21300000, guid: 1cf565de5f6b22d41b103c37298c6502, type: 3}
    - time: 0.9166667
      value: {fileID: 21300000, guid: c1b9bf735e45cf94f91e7d1ce8d5d588, type: 3}
    - time: 1
      value: {fileID: 21300000, guid: 99434aa4655edb8498c2ee18cb87cbb6, type: 3}
    - time: 1.0833334
      value: {fileID: 21300000, guid: 86a1bf5a9275dd7468b2e09500d99a3f, type: 3}
    - time: 1.1666666
      value: {fileID: 21300000, guid: c4f57dd21d603d34d8eaa3c34aa1f7d1, type: 3}
    - time: 1.25
      value: {fileID: 21300000, guid: 1ba72d14f2352fc4683d240e4d5396fe, type: 3}
    attribute: m_Sprite
    path: 
    classID: 212
    script: {fileID: 0}
  m_SampleRate: 12
  m_WrapMode: 0
  m_Bounds:
    m_Center: {x: 0, y: 0, z: 0}
    m_Extent: {x: 0, y: 0, z: 0}
  m_ClipBindingConstant:
    genericBindings:
    - serializedVersion: 2
      path: 0
      attribute: 0
      script: {fileID: 0}
      typeID: 212
      customType: 23
      isPPtrCurve: 1
    pptrCurveMapping:
    - {fileID: 21300000, guid: 48043ebb761d9484bbc1f73ff09467ae, type: 3}
    - {fileID: 21300000, guid: 3d63fbcccecc05a4eb2f3d634bf69f86, type: 3}
    - {fileID: 21300000, guid: b991faa656a320941beef8196140d52a, type: 3}
    - {fileID: 21300000, guid: 7a78d018506e8d8498089da87996bfd2, type: 3}
    - {fileID: 21300000, guid: d3e3de087170ab44bb6f9d6794d49370, type: 3}
    - {fileID: 21300000, guid: 6c214685315ee8c4abf5e77dc7d36a2f, type: 3}
    - {fileID: 21300000, guid: c688ed9f654e3ea4dbf42d6c11c84596, type: 3}
    - {fileID: 21300000, guid: 6ef548112dd08d64f8ea3a63ae598365, type: 3}
    - {fileID: 21300000, guid: c9277f352a5e48e4abbcf6cd1b830df1, type: 3}
    - {fileID: 21300000, guid: 5d6524166cb1cae409d6df89c13327bb, type: 3}
    - {fileID: 21300000, guid: 1cf565de5f6b22d41b103c37298c6502, type: 3}
    - {fileID: 21300000, guid: c1b9bf735e45cf94f91e7d1ce8d5d588, type: 3}
    - {fileID: 21300000, guid: 99434aa4655edb8498c2ee18cb87cbb6, type: 3}
    - {fileID: 21300000, guid: 86a1bf5a9275dd7468b2e09500d99a3f, type: 3}
    - {fileID: 21300000, guid: c4f57dd21d603d34d8eaa3c34aa1f7d1, type: 3}
    - {fileID: 21300000, guid: 1ba72d14f2352fc4683d240e4d5396fe, type: 3}
  m_AnimationClipSettings:
    serializedVersion: 2
    m_AdditiveReferencePoseClip: {fileID: 0}
    m_AdditiveReferencePoseTime: 0
    m_StartTime: 0
    m_StopTime: 1.3333334
    m_OrientationOffsetY: 0
    m_Level: 0
    m_CycleOffset: 0
    m_HasAdditiveReferencePose: 0
    m_LoopTime: 1
    m_LoopBlend: 0
    m_LoopBlendOrientation: 0
    m_LoopBlendPositionY: 0
    m_LoopBlendPositionXZ: 0
    m_KeepOriginalOrientation: 0
    m_KeepOriginalPositionY: 1
    m_KeepOriginalPositionXZ: 0
    m_HeightFromFeet: 0
    m_Mirror: 0
  m_EditorCurves: []
  m_EulerEditorCurves: []
  m_HasGenericRootTransform: 0
  m_HasMotionFloatCurves: 0
  m_Events: []
